%YAML 1.1
%TAG !u! tag:unity3d.com,2011:
--- !u!1001 &100100000
Prefab:
  m_ObjectHideFlags: 1
  serializedVersion: 2
  m_Modification:
    m_TransformParent: {fileID: 0}
    m_Modifications: []
    m_RemovedComponents: []
  m_ParentPrefab: {fileID: 0}
  m_RootGameObject: {fileID: 1790522902230719033}
  m_IsPrefabParent: 1
--- !u!4 &1790522902281050682
Transform:
  m_ObjectHideFlags: 0
  m_PrefabParentObject: {fileID: 0}
  m_PrefabInternal: {fileID: 100100000}
  m_GameObject: {fileID: 1790522902230719033}
  m_LocalRotation: {x: -0.7071068, y: 0, z: 0, w: 0.7071068}
  m_LocalPosition: {x: -0.005, y: -7.324, z: 15.59537}
  m_LocalScale: {x: 1.559537, y: 1.559538, z: 1.559538}
  m_Children: []
  m_Father: {fileID: 0}
  m_LocalEulerAnglesHint: {x: 0, y: 0, z: 0}
--- !u!1 &1790522902230719033
GameObject:
  m_ObjectHideFlags: 0
  m_PrefabParentObject: {fileID: 0}
  m_PrefabInternal: {fileID: 100100000}
  serializedVersion: 5
  m_Component:
  - component: {fileID: 1790522902281050682}
  - component: {fileID: 1790522905535830587}
  - component: {fileID: 1790522905552607804}
  m_Layer: 0
  m_Name: "SU Sparkle Emit Flying Dust 3 Blue"
  m_TagString:
  m_Icon: {fileID: 0}
  m_NavMeshLayer: 0
  m_StaticEditorFlags: 0
  m_IsActive: 1
--- !u!198 &1790522905535830587
ParticleSystem:
  m_ObjectHideFlags: 0
  m_PrefabParentObject: {fileID: 0}
  m_PrefabInternal: {fileID: 100100000}
  m_GameObject: {fileID: 1790522902230719033}
  serializedVersion: 5
  lengthInSec: 0.75
  simulationSpeed: 1
  stopAction: 0
  looping: 0
  prewarm: 0
  playOnAwake: 1
  useUnscaledTime: 0
  autoRandomSeed: 1
  useRigidbodyForVelocity: 1
  startDelay:
    serializedVersion: 2
    minMaxState: 0
    scalar: 0
    minScalar: 0
    maxCurve:
      serializedVersion: 2
      m_Curve: []
      m_PreInfinity: 2
      m_PostInfinity: 2
      m_RotationOrder: 4
    minCurve:
      serializedVersion: 2
      m_Curve: []
      m_PreInfinity: 2
      m_PostInfinity: 2
      m_RotationOrder: 4
  moveWithTransform: 0
  moveWithCustomTransform: {fileID: 0}
  scalingMode: 2
  randomSeed: 0
  InitialModule:
    serializedVersion: 3
    enabled: 1
    startLifetime:
      serializedVersion: 2
      minMaxState: 3
      scalar: 2.5
      minScalar: 0.8000001
      maxCurve:
        serializedVersion: 2
        m_Curve: []
        m_PreInfinity: 2
        m_PostInfinity: 2
        m_RotationOrder: 4
      minCurve:
        serializedVersion: 2
        m_Curve: []
        m_PreInfinity: 2
        m_PostInfinity: 2
        m_RotationOrder: 4
    startSpeed:
      serializedVersion: 2
      minMaxState: 3
      scalar: 0.1
      minScalar: 0
      maxCurve:
        serializedVersion: 2
        m_Curve: []
        m_PreInfinity: 2
        m_PostInfinity: 2
        m_RotationOrder: 4
      minCurve:
        serializedVersion: 2
        m_Curve: []
        m_PreInfinity: 2
        m_PostInfinity: 2
        m_RotationOrder: 4
    startColor:
      serializedVersion: 2
      minMaxState: 0
      minColor: {r: 1, g: 1, b: 1, a: 1}
      maxColor: {r: 0.01524973, g: 0, b: 1, a: 1}
      maxGradient:
        serializedVersion: 2
        key0: {r: 1, g: 1, b: 1, a: 1}
        key1: {r: 1, g: 1, b: 1, a: 1}
        key2: {r: 0, g: 0, b: 0, a: 0}
        key3: {r: 0, g: 0, b: 0, a: 0}
        key4: {r: 0, g: 0, b: 0, a: 0}
        key5: {r: 0, g: 0, b: 0, a: 0}
        key6: {r: 0, g: 0, b: 0, a: 0}
        key7: {r: 0, g: 0, b: 0, a: 0}
        ctime0: 0
        ctime1: 65535
        ctime2: 0
        ctime3: 0
        ctime4: 0
        ctime5: 0
        ctime6: 0
        ctime7: 0
        atime0: 0
        atime1: 65535
        atime2: 0
        atime3: 0
        atime4: 0
        atime5: 0
        atime6: 0
        atime7: 0
        m_Mode: 0
        m_NumColorKeys: 2
        m_NumAlphaKeys: 2
      minGradient:
        serializedVersion: 2
        key0: {r: 1, g: 1, b: 1, a: 1}
        key1: {r: 1, g: 1, b: 1, a: 1}
        key2: {r: 0, g: 0, b: 0, a: 0}
        key3: {r: 0, g: 0, b: 0, a: 0}
        key4: {r: 0, g: 0, b: 0, a: 0}
        key5: {r: 0, g: 0, b: 0, a: 0}
        key6: {r: 0, g: 0, b: 0, a: 0}
        key7: {r: 0, g: 0, b: 0, a: 0}
        ctime0: 0
        ctime1: 65535
        ctime2: 0
        ctime3: 0
        ctime4: 0
        ctime5: 0
        ctime6: 0
        ctime7: 0
        atime0: 0
        atime1: 65535
        atime2: 0
        atime3: 0
        atime4: 0
        atime5: 0
        atime6: 0
        atime7: 0
        m_Mode: 0
        m_NumColorKeys: 2
        m_NumAlphaKeys: 2
    startSize:
      serializedVersion: 2
      minMaxState: 0
      scalar: 1
      minScalar: 1
      maxCurve:
        serializedVersion: 2
        m_Curve: []
        m_PreInfinity: 2
        m_PostInfinity: 2
        m_RotationOrder: 4
      minCurve:
        serializedVersion: 2
        m_Curve: []
        m_PreInfinity: 2
        m_PostInfinity: 2
        m_RotationOrder: 4
    startSizeY:
      serializedVersion: 2
      minMaxState: 0
      scalar: 1
      minScalar: 1
      maxCurve:
        serializedVersion: 2
        m_Curve: []
        m_PreInfinity: 2
        m_PostInfinity: 2
        m_RotationOrder: 4
      minCurve:
        serializedVersion: 2
        m_Curve: []
        m_PreInfinity: 2
        m_PostInfinity: 2
        m_RotationOrder: 4
    startSizeZ:
      serializedVersion: 2
      minMaxState: 0
      scalar: 1
      minScalar: 1
      maxCurve:
        serializedVersion: 2
        m_Curve: []
        m_PreInfinity: 2
        m_PostInfinity: 2
        m_RotationOrder: 4
      minCurve:
        serializedVersion: 2
        m_Curve: []
        m_PreInfinity: 2
        m_PostInfinity: 2
        m_RotationOrder: 4
    startRotationX:
      serializedVersion: 2
      minMaxState: 3
      scalar: 0
      minScalar: 0
      maxCurve:
        serializedVersion: 2
        m_Curve: []
        m_PreInfinity: 2
        m_PostInfinity: 2
        m_RotationOrder: 4
      minCurve:
        serializedVersion: 2
        m_Curve: []
        m_PreInfinity: 2
        m_PostInfinity: 2
        m_RotationOrder: 4
    startRotationY:
      serializedVersion: 2
      minMaxState: 3
      scalar: 0
      minScalar: 0
      maxCurve:
        serializedVersion: 2
        m_Curve: []
        m_PreInfinity: 2
        m_PostInfinity: 2
        m_RotationOrder: 4
      minCurve:
        serializedVersion: 2
        m_Curve: []
        m_PreInfinity: 2
        m_PostInfinity: 2
        m_RotationOrder: 4
    startRotation:
      serializedVersion: 2
      minMaxState: 3
      scalar: -0.7853981
      minScalar: 0.7853981
      maxCurve:
        serializedVersion: 2
        m_Curve: []
        m_PreInfinity: 2
        m_PostInfinity: 2
        m_RotationOrder: 4
      minCurve:
        serializedVersion: 2
        m_Curve: []
        m_PreInfinity: 2
        m_PostInfinity: 2
        m_RotationOrder: 4
    randomizeRotationDirection: 0
    maxNumParticles: 1000
    size3D: 0
    rotation3D: 0
    gravityModifier:
      serializedVersion: 2
      minMaxState: 0
      scalar: -0.1
      minScalar: 0.1
      maxCurve:
        serializedVersion: 2
        m_Curve: []
        m_PreInfinity: 2
        m_PostInfinity: 2
        m_RotationOrder: 4
      minCurve:
        serializedVersion: 2
        m_Curve: []
        m_PreInfinity: 2
        m_PostInfinity: 2
        m_RotationOrder: 4
  ShapeModule:
    serializedVersion: 5
    enabled: 1
    type: 8
    angle: 29
    length: 0.87
    boxThickness: {x: 0, y: 0, z: 0}
    radiusThickness: 1
    donutRadius: 0.2
    m_Position: {x: 0, y: 0, z: 0}
    m_Rotation: {x: 0, y: 0, z: 0}
    m_Scale: {x: 1, y: 1, z: 1}
    placementMode: 0
    m_MeshMaterialIndex: 0
    m_MeshNormalOffset: 0
    m_Mesh: {fileID: 0}
    m_MeshRenderer: {fileID: 0}
    m_SkinnedMeshRenderer: {fileID: 0}
    m_UseMeshMaterialIndex: 0
    m_UseMeshColors: 1
    alignToDirection: 0
    m_Texture: {fileID: 0}
    m_TextureClipChannel: 3
    m_TextureClipThreshold: 0
    m_TextureUVChannel: 0
    m_TextureColorAffectsParticles: 1
    m_TextureAlphaAffectsParticles: 1
    m_TextureBilinearFiltering: 0
    randomDirectionAmount: 1
    sphericalDirectionAmount: 0
    randomPositionAmount: 0
    radius:
      value: 0.2187638
      mode: 0
      spread: 0
      speed:
        serializedVersion: 2
        minMaxState: 0
        scalar: 1
        minScalar: 1
        maxCurve:
          serializedVersion: 2
          m_Curve: []
          m_PreInfinity: 2
          m_PostInfinity: 2
          m_RotationOrder: 4
        minCurve:
          serializedVersion: 2
          m_Curve: []
          m_PreInfinity: 2
          m_PostInfinity: 2
          m_RotationOrder: 4
    arc:
      value: 360
      mode: 0
      spread: 0
      speed:
        serializedVersion: 2
        minMaxState: 0
        scalar: 1
        minScalar: 1
        maxCurve:
          serializedVersion: 2
          m_Curve: []
          m_PreInfinity: 2
          m_PostInfinity: 2
          m_RotationOrder: 4
        minCurve:
          serializedVersion: 2
          m_Curve: []
          m_PreInfinity: 2
          m_PostInfinity: 2
          m_RotationOrder: 4
  EmissionModule:
    serializedVersion: 4
    enabled: 1
    rateOverTime:
      serializedVersion: 2
      minMaxState: 0
      scalar: 0
      minScalar: 10
      maxCurve:
        serializedVersion: 2
        m_Curve: []
        m_PreInfinity: 2
        m_PostInfinity: 2
        m_RotationOrder: 4
      minCurve:
        serializedVersion: 2
        m_Curve: []
        m_PreInfinity: 2
        m_PostInfinity: 2
        m_RotationOrder: 4
    rateOverDistance:
      serializedVersion: 2
      minMaxState: 0
      scalar: 0
      minScalar: 0
      maxCurve:
        serializedVersion: 2
        m_Curve: []
        m_PreInfinity: 2
        m_PostInfinity: 2
        m_RotationOrder: 4
      minCurve:
        serializedVersion: 2
        m_Curve: []
        m_PreInfinity: 2
        m_PostInfinity: 2
        m_RotationOrder: 4
    m_BurstCount: 1
    m_Bursts:
    - serializedVersion: 2
      time: 0
      countCurve:
        serializedVersion: 2
        minMaxState: 0
        scalar: 24
        minScalar: 24
        maxCurve:
          serializedVersion: 2
          m_Curve: []
          m_PreInfinity: 2
          m_PostInfinity: 2
          m_RotationOrder: 4
        minCurve:
          serializedVersion: 2
          m_Curve: []
          m_PreInfinity: 2
          m_PostInfinity: 2
          m_RotationOrder: 4
      cycleCount: 1
      repeatInterval: 0.01
  SizeModule:
    enabled: 1
    curve:
      serializedVersion: 2
      minMaxState: 2
      scalar: 0.5
      minScalar: 1
      maxCurve:
        serializedVersion: 2
        m_Curve:
        - serializedVersion: 3
          time: 0
          value: 1
          inSlope: 0
          outSlope: 0
          weightedMode: 0
          inWeight: 0.3333333
          outWeight: 0.3333333
        - serializedVersion: 3
          time: 0.08371567
          value: 0.4957824
          inSlope: -0.4732129
          outSlope: -0.4732129
          weightedMode: 0
          inWeight: 0.3333333
          outWeight: 0.3333333
        - serializedVersion: 3
          time: 0.7892032
          value: 0.2129964
          inSlope: -0.3510824
          outSlope: -0.3510824
          weightedMode: 0
          inWeight: 0.3333333
          outWeight: 0.3333333
        m_PreInfinity: 2
        m_PostInfinity: 2
        m_RotationOrder: 4
      minCurve:
        serializedVersion: 2
        m_Curve:
        - serializedVersion: 3
          time: 0
          value: 0.4122744
          inSlope: 0
          outSlope: 0
          weightedMode: 0
          inWeight: 0.3333333
          outWeight: 0.3333333
        - serializedVersion: 3
          time: 1
          value: 0.07581227
          inSlope: 0.03830021
          outSlope: 0.03830021
          weightedMode: 0
          inWeight: 0.3333333
          outWeight: 0.3333333
        m_PreInfinity: 2
        m_PostInfinity: 2
        m_RotationOrder: 4
    y:
      serializedVersion: 2
      minMaxState: 1
      scalar: 1
      minScalar: 1
      maxCurve:
        serializedVersion: 2
        m_Curve:
        - serializedVersion: 3
          time: 0
          value: 0
          inSlope: 0
          outSlope: 1
          weightedMode: 0
          inWeight: 0.3333333
          outWeight: 0.3333333
        - serializedVersion: 3
          time: 1
          value: 1
          inSlope: 1
          outSlope: 0
          weightedMode: 0
          inWeight: 0.3333333
          outWeight: 0.3333333
        m_PreInfinity: 2
        m_PostInfinity: 2
        m_RotationOrder: 4
      minCurve:
        serializedVersion: 2
        m_Curve: []
        m_PreInfinity: 2
        m_PostInfinity: 2
        m_RotationOrder: 4
    z:
      serializedVersion: 2
      minMaxState: 1
      scalar: 1
      minScalar: 1
      maxCurve:
        serializedVersion: 2
        m_Curve:
        - serializedVersion: 3
          time: 0
          value: 0
          inSlope: 0
          outSlope: 1
          weightedMode: 0
          inWeight: 0.3333333
          outWeight: 0.3333333
        - serializedVersion: 3
          time: 1
          value: 1
          inSlope: 1
          outSlope: 0
          weightedMode: 0
          inWeight: 0.3333333
          outWeight: 0.3333333
        m_PreInfinity: 2
        m_PostInfinity: 2
        m_RotationOrder: 4
      minCurve:
        serializedVersion: 2
        m_Curve: []
        m_PreInfinity: 2
        m_PostInfinity: 2
        m_RotationOrder: 4
    separateAxes: 0
  RotationModule:
    enabled: 1
    x:
      serializedVersion: 2
      minMaxState: 0
      scalar: 0
      minScalar: 0
      maxCurve:
        serializedVersion: 2
        m_Curve: []
        m_PreInfinity: 2
        m_PostInfinity: 2
        m_RotationOrder: 4
      minCurve:
        serializedVersion: 2
        m_Curve: []
        m_PreInfinity: 2
        m_PostInfinity: 2
        m_RotationOrder: 4
    y:
      serializedVersion: 2
      minMaxState: 0
      scalar: 0
      minScalar: 0
      maxCurve:
        serializedVersion: 2
        m_Curve: []
        m_PreInfinity: 2
        m_PostInfinity: 2
        m_RotationOrder: 4
      minCurve:
        serializedVersion: 2
        m_Curve: []
        m_PreInfinity: 2
        m_PostInfinity: 2
        m_RotationOrder: 4
    curve:
      serializedVersion: 2
      minMaxState: 2
      scalar: 8.726646
      minScalar: 0.7853982
      maxCurve:
        serializedVersion: 2
        m_Curve:
        - serializedVersion: 3
          time: 0
          value: 1
          inSlope: 0
          outSlope: 0
          weightedMode: 0
          inWeight: 0.3333333
          outWeight: 0.3333333
        m_PreInfinity: 2
        m_PostInfinity: 2
        m_RotationOrder: 4
      minCurve:
        serializedVersion: 2
        m_Curve:
        - serializedVersion: 3
          time: 0
          value: 0.2418772
          inSlope: 0
          outSlope: 0
          weightedMode: 0
          inWeight: 0.3333333
          outWeight: 0.3333333
        - serializedVersion: 3
          time: 1
          value: 0.2418772
          inSlope: 0
          outSlope: 0
          weightedMode: 0
          inWeight: 0.3333333
          outWeight: 0.3333333
        m_PreInfinity: 2
        m_PostInfinity: 2
        m_RotationOrder: 4
    separateAxes: 0
  ColorModule:
    enabled: 0
    gradient:
      serializedVersion: 2
      minMaxState: 1
      minColor: {r: 1, g: 1, b: 1, a: 1}
      maxColor: {r: 1, g: 1, b: 1, a: 1}
      maxGradient:
        serializedVersion: 2
        key0: {r: 0.9764706, g: 0.8980392, b: 0.3764706, a: 1}
        key1: {r: 0.9764706, g: 0.8980392, b: 0.3764706, a: 1}
        key2: {r: 0, g: 0, b: 0, a: 0}
        key3: {r: 0, g: 0, b: 0, a: 0}
        key4: {r: 0, g: 0, b: 0, a: 0}
        key5: {r: 0, g: 0, b: 0, a: 0}
        key6: {r: 0, g: 0, b: 0, a: 0}
        key7: {r: 0, g: 0, b: 0, a: 0}
        ctime0: 0
        ctime1: 65535
        ctime2: 0
        ctime3: 0
        ctime4: 0
        ctime5: 0
        ctime6: 0
        ctime7: 0
        atime0: 0
        atime1: 53827
        atime2: 59681
        atime3: 58982
        atime4: 0
        atime5: 0
        atime6: 0
        atime7: 0
        m_Mode: 0
        m_NumColorKeys: 2
        m_NumAlphaKeys: 3
      minGradient:
        serializedVersion: 2
        key0: {r: 1, g: 1, b: 1, a: 1}
        key1: {r: 1, g: 1, b: 1, a: 1}
        key2: {r: 0, g: 0, b: 0, a: 0}
        key3: {r: 0, g: 0, b: 0, a: 0}
        key4: {r: 0, g: 0, b: 0, a: 0}
        key5: {r: 0, g: 0, b: 0, a: 0}
        key6: {r: 0, g: 0, b: 0, a: 0}
        key7: {r: 0, g: 0, b: 0, a: 0}
        ctime0: 0
        ctime1: 65535
        ctime2: 0
        ctime3: 0
        ctime4: 0
        ctime5: 0
        ctime6: 0
        ctime7: 0
        atime0: 0
        atime1: 65535
        atime2: 0
        atime3: 0
        atime4: 0
        atime5: 0
        atime6: 0
        atime7: 0
        m_Mode: 0
        m_NumColorKeys: 2
        m_NumAlphaKeys: 2
  UVModule:
    enabled: 0
    mode: 0
    frameOverTime:
      serializedVersion: 2
      minMaxState: 1
      scalar: 0.9999
      minScalar: 0.9999
      maxCurve:
        serializedVersion: 2
        m_Curve:
        - serializedVersion: 3
          time: 0
          value: 0
          inSlope: 1
          outSlope: 1
          weightedMode: 0
          inWeight: 0.3333333
          outWeight: 0.3333333
        - serializedVersion: 3
          time: 1
          value: 1
          inSlope: 1
          outSlope: 1
          weightedMode: 0
          inWeight: 0.3333333
          outWeight: 0.3333333
        m_PreInfinity: 2
        m_PostInfinity: 2
        m_RotationOrder: 4
      minCurve:
        serializedVersion: 2
        m_Curve: []
        m_PreInfinity: 2
        m_PostInfinity: 2
        m_RotationOrder: 4
    startFrame:
      serializedVersion: 2
      minMaxState: 0
      scalar: 0
      minScalar: 0
      maxCurve:
        serializedVersion: 2
        m_Curve: []
        m_PreInfinity: 2
        m_PostInfinity: 2
        m_RotationOrder: 4
      minCurve:
        serializedVersion: 2
        m_Curve: []
        m_PreInfinity: 2
        m_PostInfinity: 2
        m_RotationOrder: 4
    tilesX: 4
    tilesY: 4
    animationType: 0
    rowIndex: 0
    cycles: 4
    uvChannelMask: -1
    flipU: 0
    flipV: 0
    randomRow: 1
    sprites:
    - sprite: {fileID: 0}
  VelocityModule:
    enabled: 1
    x:
      serializedVersion: 2
      minMaxState: 1
      scalar: 0
      minScalar: 0
      maxCurve:
        serializedVersion: 2
        m_Curve:
        - serializedVersion: 3
          time: 0
          value: 1
          inSlope: 0
          outSlope: 0
          weightedMode: 0
          inWeight: 0.3333333
          outWeight: 0.3333333
        - serializedVersion: 3
          time: 1
          value: 1
          inSlope: 0
          outSlope: 0
          weightedMode: 0
          inWeight: 0.3333333
          outWeight: 0.3333333
        m_PreInfinity: 2
        m_PostInfinity: 2
        m_RotationOrder: 4
      minCurve:
        serializedVersion: 2
        m_Curve: []
        m_PreInfinity: 2
        m_PostInfinity: 2
        m_RotationOrder: 4
    y:
      serializedVersion: 2
      minMaxState: 1
      scalar: 0
      minScalar: 0
      maxCurve:
        serializedVersion: 2
        m_Curve:
        - serializedVersion: 3
          time: 0
          value: 1
          inSlope: 0
          outSlope: 0
          weightedMode: 0
          inWeight: 0.3333333
          outWeight: 0.3333333
        - serializedVersion: 3
          time: 1
          value: 1
          inSlope: 0
          outSlope: 0
          weightedMode: 0
          inWeight: 0.3333333
          outWeight: 0.3333333
        m_PreInfinity: 2
        m_PostInfinity: 2
        m_RotationOrder: 4
      minCurve:
        serializedVersion: 2
        m_Curve: []
        m_PreInfinity: 2
        m_PostInfinity: 2
        m_RotationOrder: 4
    z:
      serializedVersion: 2
      minMaxState: 1
      scalar: 1
      minScalar: 0
      maxCurve:
        serializedVersion: 2
        m_Curve:
        - serializedVersion: 3
          time: 0
          value: -1
          inSlope: 30.33358
          outSlope: 30.33358
          weightedMode: 0
          inWeight: 0.3333333
          outWeight: 0.3333333
        - serializedVersion: 3
          time: 0.1398156
          value: 0.2490975
          inSlope: 0
          outSlope: 0
          weightedMode: 0
          inWeight: 0.3333333
          outWeight: 0.3333333
        - serializedVersion: 3
          time: 1
          value: -1
          inSlope: -2.139932
          outSlope: -2.139932
          weightedMode: 0
          inWeight: 0.3333333
          outWeight: 0.3333333
        m_PreInfinity: 2
        m_PostInfinity: 2
        m_RotationOrder: 4
      minCurve:
        serializedVersion: 2
        m_Curve: []
        m_PreInfinity: 2
        m_PostInfinity: 2
        m_RotationOrder: 4
    orbitalX:
      serializedVersion: 2
      minMaxState: 0
      scalar: 0
      minScalar: 0
      maxCurve:
        serializedVersion: 2
        m_Curve: []
        m_PreInfinity: 2
        m_PostInfinity: 2
        m_RotationOrder: 4
      minCurve:
        serializedVersion: 2
        m_Curve: []
        m_PreInfinity: 2
        m_PostInfinity: 2
        m_RotationOrder: 4
    orbitalY:
      serializedVersion: 2
      minMaxState: 0
      scalar: 0
      minScalar: 0
      maxCurve:
        serializedVersion: 2
        m_Curve: []
        m_PreInfinity: 2
        m_PostInfinity: 2
        m_RotationOrder: 4
      minCurve:
        serializedVersion: 2
        m_Curve: []
        m_PreInfinity: 2
        m_PostInfinity: 2
        m_RotationOrder: 4
    orbitalZ:
      serializedVersion: 2
      minMaxState: 0
      scalar: 0
      minScalar: 0
      maxCurve:
        serializedVersion: 2
        m_Curve: []
        m_PreInfinity: 2
        m_PostInfinity: 2
        m_RotationOrder: 4
      minCurve:
        serializedVersion: 2
        m_Curve: []
        m_PreInfinity: 2
        m_PostInfinity: 2
        m_RotationOrder: 4
    orbitalOffsetX:
      serializedVersion: 2
      minMaxState: 0
      scalar: 0
      minScalar: 0
      maxCurve:
        serializedVersion: 2
        m_Curve: []
        m_PreInfinity: 2
        m_PostInfinity: 2
        m_RotationOrder: 4
      minCurve:
        serializedVersion: 2
        m_Curve: []
        m_PreInfinity: 2
        m_PostInfinity: 2
        m_RotationOrder: 4
    orbitalOffsetY:
      serializedVersion: 2
      minMaxState: 0
      scalar: 0
      minScalar: 0
      maxCurve:
        serializedVersion: 2
        m_Curve: []
        m_PreInfinity: 2
        m_PostInfinity: 2
        m_RotationOrder: 4
      minCurve:
        serializedVersion: 2
        m_Curve: []
        m_PreInfinity: 2
        m_PostInfinity: 2
        m_RotationOrder: 4
    orbitalOffsetZ:
      serializedVersion: 2
      minMaxState: 0
      scalar: 0
      minScalar: 0
      maxCurve:
        serializedVersion: 2
        m_Curve: []
        m_PreInfinity: 2
        m_PostInfinity: 2
        m_RotationOrder: 4
      minCurve:
        serializedVersion: 2
        m_Curve: []
        m_PreInfinity: 2
        m_PostInfinity: 2
        m_RotationOrder: 4
    radial:
      serializedVersion: 2
      minMaxState: 0
      scalar: 0
      minScalar: 0
      maxCurve:
        serializedVersion: 2
        m_Curve: []
        m_PreInfinity: 2
        m_PostInfinity: 2
        m_RotationOrder: 4
      minCurve:
        serializedVersion: 2
        m_Curve: []
        m_PreInfinity: 2
        m_PostInfinity: 2
        m_RotationOrder: 4
    speedModifier:
      serializedVersion: 2
      minMaxState: 0
      scalar: 1
      minScalar: 1
      maxCurve:
        serializedVersion: 2
        m_Curve: []
        m_PreInfinity: 2
        m_PostInfinity: 2
        m_RotationOrder: 4
      minCurve:
        serializedVersion: 2
        m_Curve: []
        m_PreInfinity: 2
        m_PostInfinity: 2
        m_RotationOrder: 4
    inWorldSpace: 0
  InheritVelocityModule:
    enabled: 0
    m_Mode: 0
    m_Curve:
      serializedVersion: 2
      minMaxState: 0
      scalar: 0
      minScalar: 0
      maxCurve:
        serializedVersion: 2
        m_Curve: []
        m_PreInfinity: 2
        m_PostInfinity: 2
        m_RotationOrder: 4
      minCurve:
        serializedVersion: 2
        m_Curve: []
        m_PreInfinity: 2
        m_PostInfinity: 2
        m_RotationOrder: 4
  ForceModule:
    enabled: 0
    x:
      serializedVersion: 2
      minMaxState: 1
      scalar: 3
      minScalar: 0
      maxCurve:
        serializedVersion: 2
        m_Curve:
        - serializedVersion: 3
          time: 0
          value: -0.03971124
          inSlope: -0.9602888
          outSlope: -0.9602888
          weightedMode: 0
          inWeight: 0.3333333
          outWeight: 0.3333333
        - serializedVersion: 3
          time: 1
          value: -1
          inSlope: -0.9602888
          outSlope: -0.9602888
          weightedMode: 0
          inWeight: 0.3333333
          outWeight: 0.3333333
        m_PreInfinity: 2
        m_PostInfinity: 2
        m_RotationOrder: 4
      minCurve:
        serializedVersion: 2
        m_Curve: []
        m_PreInfinity: 2
        m_PostInfinity: 2
        m_RotationOrder: 4
    y:
      serializedVersion: 2
      minMaxState: 1
      scalar: 0
      minScalar: 0
      maxCurve:
        serializedVersion: 2
        m_Curve:
        - serializedVersion: 3
          time: 0
          value: 1
          inSlope: 0
          outSlope: 0
          weightedMode: 0
          inWeight: 0.3333333
          outWeight: 0.3333333
        - serializedVersion: 3
          time: 1
          value: 1
          inSlope: 0
          outSlope: 0
          weightedMode: 0
          inWeight: 0.3333333
          outWeight: 0.3333333
        m_PreInfinity: 2
        m_PostInfinity: 2
        m_RotationOrder: 4
      minCurve:
        serializedVersion: 2
        m_Curve: []
        m_PreInfinity: 2
        m_PostInfinity: 2
        m_RotationOrder: 4
    z:
      serializedVersion: 2
      minMaxState: 1
      scalar: 5
      minScalar: 0
      maxCurve:
        serializedVersion: 2
        m_Curve:
        - serializedVersion: 3
          time: 0
          value: -0.0252707
          inSlope: -0.9747293
          outSlope: -0.9747293
          weightedMode: 0
          inWeight: 0.3333333
          outWeight: 0.3333333
        - serializedVersion: 3
          time: 1
          value: -1
          inSlope: -0.9747293
          outSlope: -0.9747293
          weightedMode: 0
          inWeight: 0.3333333
          outWeight: 0.3333333
        m_PreInfinity: 2
        m_PostInfinity: 2
        m_RotationOrder: 4
      minCurve:
        serializedVersion: 2
        m_Curve: []
        m_PreInfinity: 2
        m_PostInfinity: 2
        m_RotationOrder: 4
    inWorldSpace: 0
    randomizePerFrame: 0
  ExternalForcesModule:
    enabled: 0
    multiplier: 1
  ClampVelocityModule:
    enabled: 0
    x:
      serializedVersion: 2
      minMaxState: 0
      scalar: 1
      minScalar: 1
      maxCurve:
        serializedVersion: 2
        m_Curve: []
        m_PreInfinity: 2
        m_PostInfinity: 2
        m_RotationOrder: 4
      minCurve:
        serializedVersion: 2
        m_Curve: []
        m_PreInfinity: 2
        m_PostInfinity: 2
        m_RotationOrder: 4
    y:
      serializedVersion: 2
      minMaxState: 0
      scalar: 1
      minScalar: 1
      maxCurve:
        serializedVersion: 2
        m_Curve: []
        m_PreInfinity: 2
        m_PostInfinity: 2
        m_RotationOrder: 4
      minCurve:
        serializedVersion: 2
        m_Curve: []
        m_PreInfinity: 2
        m_PostInfinity: 2
        m_RotationOrder: 4
    z:
      serializedVersion: 2
      minMaxState: 0
      scalar: 1
      minScalar: 1
      maxCurve:
        serializedVersion: 2
        m_Curve: []
        m_PreInfinity: 2
        m_PostInfinity: 2
        m_RotationOrder: 4
      minCurve:
        serializedVersion: 2
        m_Curve: []
        m_PreInfinity: 2
        m_PostInfinity: 2
        m_RotationOrder: 4
    magnitude:
      serializedVersion: 2
      minMaxState: 0
      scalar: 1
      minScalar: 1
      maxCurve:
        serializedVersion: 2
        m_Curve: []
        m_PreInfinity: 2
        m_PostInfinity: 2
        m_RotationOrder: 4
      minCurve:
        serializedVersion: 2
        m_Curve: []
        m_PreInfinity: 2
        m_PostInfinity: 2
        m_RotationOrder: 4
    separateAxis: 0
    inWorldSpace: 0
    multiplyDragByParticleSize: 1
    multiplyDragByParticleVelocity: 1
    dampen: 0.7
    drag:
      serializedVersion: 2
      minMaxState: 0
      scalar: 0
      minScalar: 0
      maxCurve:
        serializedVersion: 2
        m_Curve: []
        m_PreInfinity: 2
        m_PostInfinity: 2
        m_RotationOrder: 4
      minCurve:
        serializedVersion: 2
        m_Curve: []
        m_PreInfinity: 2
        m_PostInfinity: 2
        m_RotationOrder: 4
  NoiseModule:
    enabled: 0
    strength:
      serializedVersion: 2
      minMaxState: 0
      scalar: 1
      minScalar: 1
      maxCurve:
        serializedVersion: 2
        m_Curve: []
        m_PreInfinity: 2
        m_PostInfinity: 2
        m_RotationOrder: 4
      minCurve:
        serializedVersion: 2
        m_Curve: []
        m_PreInfinity: 2
        m_PostInfinity: 2
        m_RotationOrder: 4
    strengthY:
      serializedVersion: 2
      minMaxState: 0
      scalar: 1
      minScalar: 1
      maxCurve:
        serializedVersion: 2
        m_Curve: []
        m_PreInfinity: 2
        m_PostInfinity: 2
        m_RotationOrder: 4
      minCurve:
        serializedVersion: 2
        m_Curve: []
        m_PreInfinity: 2
        m_PostInfinity: 2
        m_RotationOrder: 4
    strengthZ:
      serializedVersion: 2
      minMaxState: 0
      scalar: 1
      minScalar: 1
      maxCurve:
        serializedVersion: 2
        m_Curve: []
        m_PreInfinity: 2
        m_PostInfinity: 2
        m_RotationOrder: 4
      minCurve:
        serializedVersion: 2
        m_Curve: []
        m_PreInfinity: 2
        m_PostInfinity: 2
        m_RotationOrder: 4
    separateAxes: 0
    frequency: 0.5
    damping: 1
    octaves: 1
    octaveMultiplier: 0.5
    octaveScale: 2
    quality: 2
    scrollSpeed:
      serializedVersion: 2
      minMaxState: 0
      scalar: 0
      minScalar: 0
      maxCurve:
        serializedVersion: 2
        m_Curve: []
        m_PreInfinity: 2
        m_PostInfinity: 2
        m_RotationOrder: 4
      minCurve:
        serializedVersion: 2
        m_Curve: []
        m_PreInfinity: 2
        m_PostInfinity: 2
        m_RotationOrder: 4
    remap:
      serializedVersion: 2
      minMaxState: 1
      scalar: 1
      minScalar: 1
      maxCurve:
        serializedVersion: 2
        m_Curve:
        - serializedVersion: 3
          time: 0
          value: 0
          inSlope: 0
          outSlope: 1
          weightedMode: 0
          inWeight: 0.3333333
          outWeight: 0.3333333
        - serializedVersion: 3
          time: 1
          value: 1
          inSlope: 1
          outSlope: 0
          weightedMode: 0
          inWeight: 0.3333333
          outWeight: 0.3333333
        m_PreInfinity: 2
        m_PostInfinity: 2
        m_RotationOrder: 4
      minCurve:
        serializedVersion: 2
        m_Curve: []
        m_PreInfinity: 2
        m_PostInfinity: 2
        m_RotationOrder: 4
    remapY:
      serializedVersion: 2
      minMaxState: 1
      scalar: 1
      minScalar: 1
      maxCurve:
        serializedVersion: 2
        m_Curve:
        - serializedVersion: 3
          time: 0
          value: 0
          inSlope: 0
          outSlope: 1
          weightedMode: 0
          inWeight: 0.3333333
          outWeight: 0.3333333
        - serializedVersion: 3
          time: 1
          value: 1
          inSlope: 1
          outSlope: 0
          weightedMode: 0
          inWeight: 0.3333333
          outWeight: 0.3333333
        m_PreInfinity: 2
        m_PostInfinity: 2
        m_RotationOrder: 4
      minCurve:
        serializedVersion: 2
        m_Curve: []
        m_PreInfinity: 2
        m_PostInfinity: 2
        m_RotationOrder: 4
    remapZ:
      serializedVersion: 2
      minMaxState: 1
      scalar: 1
      minScalar: 1
      maxCurve:
        serializedVersion: 2
        m_Curve:
        - serializedVersion: 3
          time: 0
          value: 0
          inSlope: 0
          outSlope: 1
          weightedMode: 0
          inWeight: 0.3333333
          outWeight: 0.3333333
        - serializedVersion: 3
          time: 1
          value: 1
          inSlope: 1
          outSlope: 0
          weightedMode: 0
          inWeight: 0.3333333
          outWeight: 0.3333333
        m_PreInfinity: 2
        m_PostInfinity: 2
        m_RotationOrder: 4
      minCurve:
        serializedVersion: 2
        m_Curve: []
        m_PreInfinity: 2
        m_PostInfinity: 2
        m_RotationOrder: 4
    remapEnabled: 0
    positionAmount:
      serializedVersion: 2
      minMaxState: 0
      scalar: 1
      minScalar: 1
      maxCurve:
        serializedVersion: 2
        m_Curve: []
        m_PreInfinity: 2
        m_PostInfinity: 2
        m_RotationOrder: 4
      minCurve:
        serializedVersion: 2
        m_Curve: []
        m_PreInfinity: 2
        m_PostInfinity: 2
        m_RotationOrder: 4
    rotationAmount:
      serializedVersion: 2
      minMaxState: 0
      scalar: 0
      minScalar: 0
      maxCurve:
        serializedVersion: 2
        m_Curve: []
        m_PreInfinity: 2
        m_PostInfinity: 2
        m_RotationOrder: 4
      minCurve:
        serializedVersion: 2
        m_Curve: []
        m_PreInfinity: 2
        m_PostInfinity: 2
        m_RotationOrder: 4
    sizeAmount:
      serializedVersion: 2
      minMaxState: 0
      scalar: 0
      minScalar: 0
      maxCurve:
        serializedVersion: 2
        m_Curve: []
        m_PreInfinity: 2
        m_PostInfinity: 2
        m_RotationOrder: 4
      minCurve:
        serializedVersion: 2
        m_Curve: []
        m_PreInfinity: 2
        m_PostInfinity: 2
        m_RotationOrder: 4
  SizeBySpeedModule:
    enabled: 0
    curve:
      serializedVersion: 2
      minMaxState: 1
      scalar: 1
      minScalar: 1
      maxCurve:
        serializedVersion: 2
        m_Curve:
        - serializedVersion: 3
          time: 0
          value: 1
          inSlope: 0
          outSlope: 0
          weightedMode: 0
          inWeight: 0.3333333
          outWeight: 0.3333333
        - serializedVersion: 3
          time: 1
          value: 1
          inSlope: 0
          outSlope: 0
          weightedMode: 0
          inWeight: 0.3333333
          outWeight: 0.3333333
        m_PreInfinity: 2
        m_PostInfinity: 2
        m_RotationOrder: 4
      minCurve:
        serializedVersion: 2
        m_Curve: []
        m_PreInfinity: 2
        m_PostInfinity: 2
        m_RotationOrder: 4
    y:
      serializedVersion: 2
      minMaxState: 1
      scalar: 1
      minScalar: 1
      maxCurve:
        serializedVersion: 2
        m_Curve:
        - serializedVersion: 3
          time: 0
          value: 0
          inSlope: 0
          outSlope: 1
          weightedMode: 0
          inWeight: 0.3333333
          outWeight: 0.3333333
        - serializedVersion: 3
          time: 1
          value: 1
          inSlope: 1
          outSlope: 0
          weightedMode: 0
          inWeight: 0.3333333
          outWeight: 0.3333333
        m_PreInfinity: 2
        m_PostInfinity: 2
        m_RotationOrder: 4
      minCurve:
        serializedVersion: 2
        m_Curve: []
        m_PreInfinity: 2
        m_PostInfinity: 2
        m_RotationOrder: 4
    z:
      serializedVersion: 2
      minMaxState: 1
      scalar: 1
      minScalar: 1
      maxCurve:
        serializedVersion: 2
        m_Curve:
        - serializedVersion: 3
          time: 0
          value: 0
          inSlope: 0
          outSlope: 1
          weightedMode: 0
          inWeight: 0.3333333
          outWeight: 0.3333333
        - serializedVersion: 3
          time: 1
          value: 1
          inSlope: 1
          outSlope: 0
          weightedMode: 0
          inWeight: 0.3333333
          outWeight: 0.3333333
        m_PreInfinity: 2
        m_PostInfinity: 2
        m_RotationOrder: 4
      minCurve:
        serializedVersion: 2
        m_Curve: []
        m_PreInfinity: 2
        m_PostInfinity: 2
        m_RotationOrder: 4
    range: {x: 0, y: 1}
    separateAxes: 0
  RotationBySpeedModule:
    enabled: 0
    x:
      serializedVersion: 2
      minMaxState: 0
      scalar: 0
      minScalar: 0
      maxCurve:
        serializedVersion: 2
        m_Curve: []
        m_PreInfinity: 2
        m_PostInfinity: 2
        m_RotationOrder: 4
      minCurve:
        serializedVersion: 2
        m_Curve: []
        m_PreInfinity: 2
        m_PostInfinity: 2
        m_RotationOrder: 4
    y:
      serializedVersion: 2
      minMaxState: 0
      scalar: 0
      minScalar: 0
      maxCurve:
        serializedVersion: 2
        m_Curve: []
        m_PreInfinity: 2
        m_PostInfinity: 2
        m_RotationOrder: 4
      minCurve:
        serializedVersion: 2
        m_Curve: []
        m_PreInfinity: 2
        m_PostInfinity: 2
        m_RotationOrder: 4
    curve:
      serializedVersion: 2
      minMaxState: 3
      scalar: 3.141593
      minScalar: -3.141593
      maxCurve:
        serializedVersion: 2
        m_Curve: []
        m_PreInfinity: 2
        m_PostInfinity: 2
        m_RotationOrder: 4
      minCurve:
        serializedVersion: 2
        m_Curve: []
        m_PreInfinity: 2
        m_PostInfinity: 2
        m_RotationOrder: 4
    separateAxes: 0
    range: {x: 0, y: 1}
  ColorBySpeedModule:
    enabled: 0
    gradient:
      serializedVersion: 2
      minMaxState: 1
      minColor: {r: 1, g: 1, b: 1, a: 1}
      maxColor: {r: 1, g: 1, b: 1, a: 1}
      maxGradient:
        serializedVersion: 2
        key0: {r: 1, g: 1, b: 1, a: 1}
        key1: {r: 1, g: 1, b: 1, a: 1}
        key2: {r: 0, g: 0, b: 0, a: 0}
        key3: {r: 0, g: 0, b: 0, a: 0}
        key4: {r: 0, g: 0, b: 0, a: 0}
        key5: {r: 0, g: 0, b: 0, a: 0}
        key6: {r: 0, g: 0, b: 0, a: 0}
        key7: {r: 0, g: 0, b: 0, a: 0}
        ctime0: 0
        ctime1: 65535
        ctime2: 0
        ctime3: 0
        ctime4: 0
        ctime5: 0
        ctime6: 0
        ctime7: 0
        atime0: 0
        atime1: 65535
        atime2: 0
        atime3: 0
        atime4: 0
        atime5: 0
        atime6: 0
        atime7: 0
        m_Mode: 0
        m_NumColorKeys: 2
        m_NumAlphaKeys: 2
      minGradient:
        serializedVersion: 2
        key0: {r: 1, g: 1, b: 1, a: 1}
        key1: {r: 1, g: 1, b: 1, a: 1}
        key2: {r: 0, g: 0, b: 0, a: 0}
        key3: {r: 0, g: 0, b: 0, a: 0}
        key4: {r: 0, g: 0, b: 0, a: 0}
        key5: {r: 0, g: 0, b: 0, a: 0}
        key6: {r: 0, g: 0, b: 0, a: 0}
        key7: {r: 0, g: 0, b: 0, a: 0}
        ctime0: 0
        ctime1: 65535
        ctime2: 0
        ctime3: 0
        ctime4: 0
        ctime5: 0
        ctime6: 0
        ctime7: 0
        atime0: 0
        atime1: 65535
        atime2: 0
        atime3: 0
        atime4: 0
        atime5: 0
        atime6: 0
        atime7: 0
        m_Mode: 0
        m_NumColorKeys: 2
        m_NumAlphaKeys: 2
    range: {x: 0, y: 1}
  CollisionModule:
    serializedVersion: 3
    enabled: 0
    type: 0
    collisionMode: 0
    colliderForce: 0
    multiplyColliderForceByParticleSize: 0
    multiplyColliderForceByParticleSpeed: 0
    multiplyColliderForceByCollisionAngle: 1
    plane0: {fileID: 0}
    plane1: {fileID: 0}
    plane2: {fileID: 0}
    plane3: {fileID: 0}
    plane4: {fileID: 0}
    plane5: {fileID: 0}
    m_Dampen:
      serializedVersion: 2
      minMaxState: 0
      scalar: 0
      minScalar: 0
      maxCurve:
        serializedVersion: 2
        m_Curve: []
        m_PreInfinity: 2
        m_PostInfinity: 2
        m_RotationOrder: 4
      minCurve:
        serializedVersion: 2
        m_Curve: []
        m_PreInfinity: 2
        m_PostInfinity: 2
        m_RotationOrder: 4
    m_Bounce:
      serializedVersion: 2
      minMaxState: 0
      scalar: 1
      minScalar: 1
      maxCurve:
        serializedVersion: 2
        m_Curve: []
        m_PreInfinity: 2
        m_PostInfinity: 2
        m_RotationOrder: 4
      minCurve:
        serializedVersion: 2
        m_Curve: []
        m_PreInfinity: 2
        m_PostInfinity: 2
        m_RotationOrder: 4
    m_EnergyLossOnCollision:
      serializedVersion: 2
      minMaxState: 0
      scalar: 0
      minScalar: 0
      maxCurve:
        serializedVersion: 2
        m_Curve: []
        m_PreInfinity: 2
        m_PostInfinity: 2
        m_RotationOrder: 4
      minCurve:
        serializedVersion: 2
        m_Curve: []
        m_PreInfinity: 2
        m_PostInfinity: 2
        m_RotationOrder: 4
    minKillSpeed: 0
    maxKillSpeed: 10000
    radiusScale: 1
    collidesWith:
      serializedVersion: 2
      m_Bits: 4294967295
    maxCollisionShapes: 256
    quality: 0
    voxelSize: 0.5
    collisionMessages: 0
    collidesWithDynamic: 1
    interiorCollisions: 0
  TriggerModule:
    enabled: 0
    collisionShape0: {fileID: 0}
    collisionShape1: {fileID: 0}
    collisionShape2: {fileID: 0}
    collisionShape3: {fileID: 0}
    collisionShape4: {fileID: 0}
    collisionShape5: {fileID: 0}
    inside: 1
    outside: 0
    enter: 0
    exit: 0
    radiusScale: 1
  SubModule:
    serializedVersion: 2
    enabled: 0
    subEmitters:
    - serializedVersion: 2
      emitter: {fileID: 0}
      type: 0
      properties: 0
  LightsModule:
    enabled: 0
    ratio: 0
    light: {fileID: 0}
    randomDistribution: 1
    color: 1
    range: 1
    intensity: 1
    rangeCurve:
      serializedVersion: 2
      minMaxState: 0
      scalar: 1
      minScalar: 1
      maxCurve:
        serializedVersion: 2
        m_Curve: []
        m_PreInfinity: 2
        m_PostInfinity: 2
        m_RotationOrder: 4
      minCurve:
        serializedVersion: 2
        m_Curve: []
        m_PreInfinity: 2
        m_PostInfinity: 2
        m_RotationOrder: 4
    intensityCurve:
      serializedVersion: 2
      minMaxState: 0
      scalar: 1
      minScalar: 1
      maxCurve:
        serializedVersion: 2
        m_Curve: []
        m_PreInfinity: 2
        m_PostInfinity: 2
        m_RotationOrder: 4
      minCurve:
        serializedVersion: 2
        m_Curve: []
        m_PreInfinity: 2
        m_PostInfinity: 2
        m_RotationOrder: 4
    maxLights: 20
  TrailModule:
    enabled: 0
    mode: 0
    ratio: 1
    lifetime:
      serializedVersion: 2
      minMaxState: 0
      scalar: 1
      minScalar: 1
      maxCurve:
        serializedVersion: 2
        m_Curve: []
        m_PreInfinity: 2
        m_PostInfinity: 2
        m_RotationOrder: 4
      minCurve:
        serializedVersion: 2
        m_Curve: []
        m_PreInfinity: 2
        m_PostInfinity: 2
        m_RotationOrder: 4
    minVertexDistance: 0.2
    textureMode: 0
    ribbonCount: 1
    worldSpace: 0
    dieWithParticles: 1
    sizeAffectsWidth: 1
    sizeAffectsLifetime: 0
    inheritParticleColor: 1
    generateLightingData: 0
    splitSubEmitterRibbons: 0
    colorOverLifetime:
      serializedVersion: 2
      minMaxState: 0
      minColor: {r: 1, g: 1, b: 1, a: 1}
      maxColor: {r: 1, g: 1, b: 1, a: 1}
      maxGradient:
        serializedVersion: 2
        key0: {r: 1, g: 1, b: 1, a: 1}
        key1: {r: 1, g: 1, b: 1, a: 1}
        key2: {r: 0, g: 0, b: 0, a: 0}
        key3: {r: 0, g: 0, b: 0, a: 0}
        key4: {r: 0, g: 0, b: 0, a: 0}
        key5: {r: 0, g: 0, b: 0, a: 0}
        key6: {r: 0, g: 0, b: 0, a: 0}
        key7: {r: 0, g: 0, b: 0, a: 0}
        ctime0: 0
        ctime1: 65535
        ctime2: 0
        ctime3: 0
        ctime4: 0
        ctime5: 0
        ctime6: 0
        ctime7: 0
        atime0: 0
        atime1: 65535
        atime2: 0
        atime3: 0
        atime4: 0
        atime5: 0
        atime6: 0
        atime7: 0
        m_Mode: 0
        m_NumColorKeys: 2
        m_NumAlphaKeys: 2
      minGradient:
        serializedVersion: 2
        key0: {r: 1, g: 1, b: 1, a: 1}
        key1: {r: 1, g: 1, b: 1, a: 1}
        key2: {r: 0, g: 0, b: 0, a: 0}
        key3: {r: 0, g: 0, b: 0, a: 0}
        key4: {r: 0, g: 0, b: 0, a: 0}
        key5: {r: 0, g: 0, b: 0, a: 0}
        key6: {r: 0, g: 0, b: 0, a: 0}
        key7: {r: 0, g: 0, b: 0, a: 0}
        ctime0: 0
        ctime1: 65535
        ctime2: 0
        ctime3: 0
        ctime4: 0
        ctime5: 0
        ctime6: 0
        ctime7: 0
        atime0: 0
        atime1: 65535
        atime2: 0
        atime3: 0
        atime4: 0
        atime5: 0
        atime6: 0
        atime7: 0
        m_Mode: 0
        m_NumColorKeys: 2
        m_NumAlphaKeys: 2
    widthOverTrail:
      serializedVersion: 2
      minMaxState: 0
      scalar: 1
      minScalar: 1
      maxCurve:
        serializedVersion: 2
        m_Curve: []
        m_PreInfinity: 2
        m_PostInfinity: 2
        m_RotationOrder: 4
      minCurve:
        serializedVersion: 2
        m_Curve: []
        m_PreInfinity: 2
        m_PostInfinity: 2
        m_RotationOrder: 4
    colorOverTrail:
      serializedVersion: 2
      minMaxState: 0
      minColor: {r: 1, g: 1, b: 1, a: 1}
      maxColor: {r: 1, g: 1, b: 1, a: 1}
      maxGradient:
        serializedVersion: 2
        key0: {r: 1, g: 1, b: 1, a: 1}
        key1: {r: 1, g: 1, b: 1, a: 1}
        key2: {r: 0, g: 0, b: 0, a: 0}
        key3: {r: 0, g: 0, b: 0, a: 0}
        key4: {r: 0, g: 0, b: 0, a: 0}
        key5: {r: 0, g: 0, b: 0, a: 0}
        key6: {r: 0, g: 0, b: 0, a: 0}
        key7: {r: 0, g: 0, b: 0, a: 0}
        ctime0: 0
        ctime1: 65535
        ctime2: 0
        ctime3: 0
        ctime4: 0
        ctime5: 0
        ctime6: 0
        ctime7: 0
        atime0: 0
        atime1: 65535
        atime2: 0
        atime3: 0
        atime4: 0
        atime5: 0
        atime6: 0
        atime7: 0
        m_Mode: 0
        m_NumColorKeys: 2
        m_NumAlphaKeys: 2
      minGradient:
        serializedVersion: 2
        key0: {r: 1, g: 1, b: 1, a: 1}
        key1: {r: 1, g: 1, b: 1, a: 1}
        key2: {r: 0, g: 0, b: 0, a: 0}
        key3: {r: 0, g: 0, b: 0, a: 0}
        key4: {r: 0, g: 0, b: 0, a: 0}
        key5: {r: 0, g: 0, b: 0, a: 0}
        key6: {r: 0, g: 0, b: 0, a: 0}
        key7: {r: 0, g: 0, b: 0, a: 0}
        ctime0: 0
        ctime1: 65535
        ctime2: 0
        ctime3: 0
        ctime4: 0
        ctime5: 0
        ctime6: 0
        ctime7: 0
        atime0: 0
        atime1: 65535
        atime2: 0
        atime3: 0
        atime4: 0
        atime5: 0
        atime6: 0
        atime7: 0
        m_Mode: 0
        m_NumColorKeys: 2
        m_NumAlphaKeys: 2
  CustomDataModule:
    enabled: 0
    mode0: 0
    vectorComponentCount0: 4
    color0:
      serializedVersion: 2
      minMaxState: 0
      minColor: {r: 1, g: 1, b: 1, a: 1}
      maxColor: {r: 1, g: 1, b: 1, a: 1}
      maxGradient:
        serializedVersion: 2
        key0: {r: 1, g: 1, b: 1, a: 1}
        key1: {r: 1, g: 1, b: 1, a: 1}
        key2: {r: 0, g: 0, b: 0, a: 0}
        key3: {r: 0, g: 0, b: 0, a: 0}
        key4: {r: 0, g: 0, b: 0, a: 0}
        key5: {r: 0, g: 0, b: 0, a: 0}
        key6: {r: 0, g: 0, b: 0, a: 0}
        key7: {r: 0, g: 0, b: 0, a: 0}
        ctime0: 0
        ctime1: 65535
        ctime2: 0
        ctime3: 0
        ctime4: 0
        ctime5: 0
        ctime6: 0
        ctime7: 0
        atime0: 0
        atime1: 65535
        atime2: 0
        atime3: 0
        atime4: 0
        atime5: 0
        atime6: 0
        atime7: 0
        m_Mode: 0
        m_NumColorKeys: 2
        m_NumAlphaKeys: 2
      minGradient:
        serializedVersion: 2
        key0: {r: 1, g: 1, b: 1, a: 1}
        key1: {r: 1, g: 1, b: 1, a: 1}
        key2: {r: 0, g: 0, b: 0, a: 0}
        key3: {r: 0, g: 0, b: 0, a: 0}
        key4: {r: 0, g: 0, b: 0, a: 0}
        key5: {r: 0, g: 0, b: 0, a: 0}
        key6: {r: 0, g: 0, b: 0, a: 0}
        key7: {r: 0, g: 0, b: 0, a: 0}
        ctime0: 0
        ctime1: 65535
        ctime2: 0
        ctime3: 0
        ctime4: 0
        ctime5: 0
        ctime6: 0
        ctime7: 0
        atime0: 0
        atime1: 65535
        atime2: 0
        atime3: 0
        atime4: 0
        atime5: 0
        atime6: 0
        atime7: 0
        m_Mode: 0
        m_NumColorKeys: 2
        m_NumAlphaKeys: 2
    vector0_0:
      serializedVersion: 2
      minMaxState: 0
      scalar: 0
      minScalar: 0
      maxCurve:
        serializedVersion: 2
        m_Curve: []
        m_PreInfinity: 2
        m_PostInfinity: 2
        m_RotationOrder: 4
      minCurve:
        serializedVersion: 2
        m_Curve: []
        m_PreInfinity: 2
        m_PostInfinity: 2
        m_RotationOrder: 4
    vector0_1:
      serializedVersion: 2
      minMaxState: 0
      scalar: 0
      minScalar: 0
      maxCurve:
        serializedVersion: 2
        m_Curve: []
        m_PreInfinity: 2
        m_PostInfinity: 2
        m_RotationOrder: 4
      minCurve:
        serializedVersion: 2
        m_Curve: []
        m_PreInfinity: 2
        m_PostInfinity: 2
        m_RotationOrder: 4
    vector0_2:
      serializedVersion: 2
      minMaxState: 0
      scalar: 0
      minScalar: 0
      maxCurve:
        serializedVersion: 2
        m_Curve: []
        m_PreInfinity: 2
        m_PostInfinity: 2
        m_RotationOrder: 4
      minCurve:
        serializedVersion: 2
        m_Curve: []
        m_PreInfinity: 2
        m_PostInfinity: 2
        m_RotationOrder: 4
    vector0_3:
      serializedVersion: 2
      minMaxState: 0
      scalar: 0
      minScalar: 0
      maxCurve:
        serializedVersion: 2
        m_Curve: []
        m_PreInfinity: 2
        m_PostInfinity: 2
        m_RotationOrder: 4
      minCurve:
        serializedVersion: 2
        m_Curve: []
        m_PreInfinity: 2
        m_PostInfinity: 2
        m_RotationOrder: 4
    mode1: 0
    vectorComponentCount1: 4
    color1:
      serializedVersion: 2
      minMaxState: 0
      minColor: {r: 1, g: 1, b: 1, a: 1}
      maxColor: {r: 1, g: 1, b: 1, a: 1}
      maxGradient:
        serializedVersion: 2
        key0: {r: 1, g: 1, b: 1, a: 1}
        key1: {r: 1, g: 1, b: 1, a: 1}
        key2: {r: 0, g: 0, b: 0, a: 0}
        key3: {r: 0, g: 0, b: 0, a: 0}
        key4: {r: 0, g: 0, b: 0, a: 0}
        key5: {r: 0, g: 0, b: 0, a: 0}
        key6: {r: 0, g: 0, b: 0, a: 0}
        key7: {r: 0, g: 0, b: 0, a: 0}
        ctime0: 0
        ctime1: 65535
        ctime2: 0
        ctime3: 0
        ctime4: 0
        ctime5: 0
        ctime6: 0
        ctime7: 0
        atime0: 0
        atime1: 65535
        atime2: 0
        atime3: 0
        atime4: 0
        atime5: 0
        atime6: 0
        atime7: 0
        m_Mode: 0
        m_NumColorKeys: 2
        m_NumAlphaKeys: 2
      minGradient:
        serializedVersion: 2
        key0: {r: 1, g: 1, b: 1, a: 1}
        key1: {r: 1, g: 1, b: 1, a: 1}
        key2: {r: 0, g: 0, b: 0, a: 0}
        key3: {r: 0, g: 0, b: 0, a: 0}
        key4: {r: 0, g: 0, b: 0, a: 0}
        key5: {r: 0, g: 0, b: 0, a: 0}
        key6: {r: 0, g: 0, b: 0, a: 0}
        key7: {r: 0, g: 0, b: 0, a: 0}
        ctime0: 0
        ctime1: 65535
        ctime2: 0
        ctime3: 0
        ctime4: 0
        ctime5: 0
        ctime6: 0
        ctime7: 0
        atime0: 0
        atime1: 65535
        atime2: 0
        atime3: 0
        atime4: 0
        atime5: 0
        atime6: 0
        atime7: 0
        m_Mode: 0
        m_NumColorKeys: 2
        m_NumAlphaKeys: 2
    vector1_0:
      serializedVersion: 2
      minMaxState: 0
      scalar: 0
      minScalar: 0
      maxCurve:
        serializedVersion: 2
        m_Curve: []
        m_PreInfinity: 2
        m_PostInfinity: 2
        m_RotationOrder: 4
      minCurve:
        serializedVersion: 2
        m_Curve: []
        m_PreInfinity: 2
        m_PostInfinity: 2
        m_RotationOrder: 4
    vector1_1:
      serializedVersion: 2
      minMaxState: 0
      scalar: 0
      minScalar: 0
      maxCurve:
        serializedVersion: 2
        m_Curve: []
        m_PreInfinity: 2
        m_PostInfinity: 2
        m_RotationOrder: 4
      minCurve:
        serializedVersion: 2
        m_Curve: []
        m_PreInfinity: 2
        m_PostInfinity: 2
        m_RotationOrder: 4
    vector1_2:
      serializedVersion: 2
      minMaxState: 0
      scalar: 0
      minScalar: 0
      maxCurve:
        serializedVersion: 2
        m_Curve: []
        m_PreInfinity: 2
        m_PostInfinity: 2
        m_RotationOrder: 4
      minCurve:
        serializedVersion: 2
        m_Curve: []
        m_PreInfinity: 2
        m_PostInfinity: 2
        m_RotationOrder: 4
    vector1_3:
      serializedVersion: 2
      minMaxState: 0
      scalar: 0
      minScalar: 0
      maxCurve:
        serializedVersion: 2
        m_Curve: []
        m_PreInfinity: 2
        m_PostInfinity: 2
        m_RotationOrder: 4
      minCurve:
        serializedVersion: 2
        m_Curve: []
        m_PreInfinity: 2
        m_PostInfinity: 2
        m_RotationOrder: 4
--- !u!199 &1790522905552607804
ParticleSystemRenderer:
  serializedVersion: 5
  m_ObjectHideFlags: 0
  m_PrefabParentObject: {fileID: 0}
  m_PrefabInternal: {fileID: 100100000}
  m_GameObject: {fileID: 1790522902230719033}
  m_Enabled: 1
  m_CastShadows: 0
  m_ReceiveShadows: 0
  m_DynamicOccludee: 1
  m_MotionVectors: 1
  m_LightProbeUsage: 0
  m_ReflectionProbeUsage: 0
  m_RenderingLayerMask: 4294967295
  m_LightmapIndex: 65535
  m_LightmapIndexDynamic: 65535
  m_LightmapTilingOffset: {x: 1, y: 1, z: 0, w: 0}
  m_LightmapTilingOffsetDynamic: {x: 1, y: 1, z: 0, w: 0}
  m_Materials:
  - {fileID: 2100000, guid: f4394440c6ae4195accad3e70a418b33, type: 2}
  - {fileID: 0}
  m_StaticBatchInfo:
    firstSubMesh: 0
    subMeshCount: 0
  m_StaticBatchRoot: {fileID: 0}
  m_ProbeAnchor: {fileID: 0}
  m_LightProbeVolumeOverride: {fileID: 0}
  m_SortingLayerID: 1133925485
  m_SortingLayer: 1
  m_SortingOrder: 2
  m_RenderMode: 0
  m_SortMode: 0
  m_MinParticleSize: 0
  m_MaxParticleSize: 0.5
  m_CameraVelocityScale: 0
  m_VelocityScale: 0
  m_LengthScale: 2
  m_SortingFudge: -10
  m_NormalDirection: 1
  m_RenderAlignment: 0
  m_Pivot: {x: 0, y: 0, z: 0}
  m_UseCustomVertexStreams: 0
  m_EnableGPUInstancing: 0
  m_VertexStreams: 0001030405
  m_Mesh: {fileID: 0}
  m_Mesh1: {fileID: 0}
  m_Mesh2: {fileID: 0}
  m_Mesh3: {fileID: 0}
  m_MaskInteraction: 0
