MODE 2
SIZE 11/30
LIMIT 0/26 
COLOR LIMIT 4
STARS 1500/2800/3600
CollectNo  8
4 0 4 12 5 3 3 4 0 4 0
4 4 10 3 0 4 0 1 0 1 0
0 4 3 0 4 0 4 0 1 0 0
0 3 3 4 0 4 2 2 0 1 0
3 3 1 2 2 9 0 5 12 0 4
3 3 1 0 2 0 4 5 5 4 0
0 3 3 0 0 2 0 4 5 0 4
3 0 3 3 3 0 2 3 3 0 4
0 4 4 4 0 5 5 1 8 1 0
0 11 4 3 3 10 3 3 1 0 0
4 4 4 4 3 3 0 1 0 0 0
0 5 0 1 1 0 1 0 4 0 0
0 0 5 12 1 5 5 5 0 4 0
0 4 0 4 0 0 0 0 5 0 0
0 0 4 0 4 0 1 5 0 5 0
0 0 3 3 3 0 1 0 3 0 0
0 0 0 5 5 0 0 0 3 0 0
0 0 3 3 0 0 4 11 0 0 0
0 0 3 0 3 0 0 4 0 0 0
0 0 0 0 0 0 0 0 0 0 0
0 0 0 0 0 0 0 0 0 0 0
0 0 0 0 0 0 0 0 0 0 0
0 0 0 0 0 0 0 0 0 0 0
0 0 0 0 0 0 0 0 0 0 0
0 0 0 0 0 0 0 0 0 0 0
0 0 0 0 0 0 0 0 0 0 0
0 0 0 0 0 0 0 0 0 0 0
0 0 0 0 0 0 0 0 0 0 0
0 0 0 0 0 0 0 0 0 0 0
0 0 0 0 0 0 0 0 0 0 0
0 0 0 0 0 0 0 0 0 0 0
0 0 0 0 0 0 0 0 0 0 0
0 0 0 0 0 0 0 0 0 0 0
0 0 0 0 0 0 0 0 0 0 0
0 0 0 0 0 0 0 0 0 0 0
0 0 0 0 0 0 0 0 0 0 0
0 0 0 0 0 0 0 0 0 0 0
0 0 0 0 0 0 0 0 0 0 0
0 0 0 0 0 0 0 0 0 0 0
0 0 0 0 0 0 0 0 0 0 0
0 0 0 0 0 0 0 0 0 0 0
0 0 0 0 0 0 0 0 0 0 0
0 0 0 0 0 0 0 0 0 0 0
0 0 0 0 0 0 0 0 0 0 0
0 0 0 0 0 0 0 0 0 0 0
0 0 0 0 0 0 0 0 0 0 0
0 0 0 0 0 0 0 0 0 0 0
0 0 0 0 0 0 0 0 0 0 0
0 0 0 0 0 0 0 0 0 0 0
0 0 0 0 0 0 0 0 0 0 0
0 0 0 0 0 0 0 0 0 0 0
0 0 0 0 0 0 0 0 0 0 0
0 0 0 0 0 0 0 0 0 0 0
0 0 0 0 0 0 0 0 0 0 0
0 0 0 0 0 0 0 0 0 0 0
0 0 0 0 0 0 0 0 0 0 0
0 0 0 0 0 0 0 0 0 0 0
0 0 0 0 0 0 0 0 0 0 0
0 0 0 0 0 0 0 0 0 0 0
0 0 0 0 0 0 0 0 0 0 0