MODE 2
SIZE 11/30
LIMIT 0/28
COLOR LIMIT 4
STARS 800/1700/2500
CollectNo  8
3 4 1 1 1 9 1 1 1 4 3
0 3 4 1 2 8 2 1 4 3 0
0 0 3 4 1 2 1 4 3 0 0
0 0 5 3 4 1 4 3 5 0 0
0 5 0 0 3 11 3 0 0 5 0
0 5 0 0 3 4 3 0 0 5 0
0 0 5 3 4 4 4 3 5 0 0
0 0 3 4 4 4 4 4 3 0 0
0 3 4 4 4 2 4 4 4 3 0
3 4 4 4 2 8 2 4 4 4 3
1 3 4 4 4 2 4 4 4 3 1
1 1 3 4 4 4 4 4 3 1 1
0 1 1 3 4 4 4 3 1 1 0
0 0 12 0 3 4 3 0 12 0 0
0 5 0 5 2 0 2 5 0 5 0
5 0 0 0 3 0 3 0 0 0 5
0 5 0 0 2 0 2 0 0 5 0
0 0 5 5 3 11 3 5 5 0 0
0 0 0 3 4 4 4 3 0 0 0
0 0 3 4 4 4 4 4 3 0 0
0 3 4 4 4 2 4 4 4 3 0
3 4 4 4 2 8 2 4 4 4 3
0 3 4 4 4 2 4 4 4 3 0
0 0 3 4 4 4 4 4 3 0 0
0 0 0 3 4 4 4 3 0 0 0
0 0 0 0 0 0 0 0 0 0 0
0 0 0 0 0 0 0 0 0 0 0
0 0 0 0 0 0 0 0 0 0 0
0 0 0 0 0 0 0 0 0 0 0
0 0 0 0 0 0 0 0 0 0 0
0 0 0 0 0 0 0 0 0 0 0
0 0 0 0 0 0 0 0 0 0 0
0 0 0 0 0 0 0 0 0 0 0
0 0 0 0 0 0 0 0 0 0 0
0 0 0 0 0 0 0 0 0 0 0
0 0 0 0 0 0 0 0 0 0 0
0 0 0 0 0 0 0 0 0 0 0
0 0 0 0 0 0 0 0 0 0 0
0 0 0 0 0 0 0 0 0 0 0
0 0 0 0 0 0 0 0 0 0 0
0 0 0 0 0 0 0 0 0 0 0
0 0 0 0 0 0 0 0 0 0 0
0 0 0 0 0 0 0 0 0 0 0
0 0 0 0 0 0 0 0 0 0 0
0 0 0 0 0 0 0 0 0 0 0
0 0 0 0 0 0 0 0 0 0 0
0 0 0 0 0 0 0 0 0 0 0
0 0 0 0 0 0 0 0 0 0 0
0 0 0 0 0 0 0 0 0 0 0
0 0 0 0 0 0 0 0 0 0 0
0 0 0 0 0 0 0 0 0 0 0
0 0 0 0 0 0 0 0 0 0 0
0 0 0 0 0 0 0 0 0 0 0
0 0 0 0 0 0 0 0 0 0 0
0 0 0 0 0 0 0 0 0 0 0
0 0 0 0 0 0 0 0 0 0 0
0 0 0 0 0 0 0 0 0 0 0
0 0 0 0 0 0 0 0 0 0 0
0 0 0 0 0 0 0 0 0 0 0
0 0 0 0 0 0 0 0 0 0 0