MODE 2
SIZE 11/60
LIMIT 0/75
COLOR LIMIT 4
STARS 3500/15500/17000
CollectNo  13
12 0 10 0 0 8 9 0 11 0 0
0 5 0 3 1 0 0 2 0 4 0
5 0 3 0 0 1 2 0 4 0 0
0 5 0 3 1 0 0 2 0 4 0
5 0 3 0 0 1 2 0 4 0 0
0 5 0 3 1 0 0 2 0 4 0
5 0 3 0 0 1 2 0 4 0 0
0 5 0 3 1 0 0 2 0 4 0
5 0 3 0 0 1 2 0 4 0 0
0 5 0 3 1 0 0 2 0 4 0
5 0 3 0 0 1 2 0 4 0 0
0 5 0 3 1 0 0 2 0 4 0
5 0 3 0 0 1 2 0 4 0 0
0 5 0 3 1 0 0 2 0 4 0
0 2 3 2 0 8 2 0 11 0 0
2 0 2 0 2 2 0 2 0 2 0
2 0 2 0 2 9 0 2 0 2 0
4 0 4 0 4 0 4 0 4 0 4
0 4 0 4 0 11 0 4 0 4 0
3 3 3 3 3 3 3 3 3 3 3
5 5 5 5 3 0 3 5 5 5 5
0 5 0 3 0 2 0 3 0 5 0
0 12 3 0 2 0 2 0 3 12 0
0 5 3 0 2 0 2 0 3 5 0
0 5 0 3 0 2 0 3 0 5 0
5 5 5 5 3 0 3 5 5 5 5
0 5 5 0 0 10 0 0 5 5 0
4 4 4 4 4 11 4 4 4 4 4
4 4 4 4 4 4 4 4 4 4 4
0 0 0 0 0 0 0 0 0 0 0
0 0 0 0 0 0 0 0 0 0 0
0 0 0 0 0 0 0 0 0 0 0
0 0 0 0 0 0 0 0 0 0 0
0 0 0 0 0 0 0 0 0 0 0
0 0 0 0 0 0 0 0 0 0 0
0 0 0 0 0 0 0 0 0 0 0
0 0 0 0 0 0 0 0 0 0 0
0 0 0 0 0 0 0 0 0 0 0
0 0 0 0 0 0 0 0 0 0 0
0 0 0 0 0 0 0 0 0 0 0
0 0 0 0 0 0 0 0 0 0 0
0 0 0 0 0 0 0 0 0 0 0
0 0 0 0 0 0 0 0 0 0 0
0 0 0 0 0 0 0 0 0 0 0
0 0 0 0 0 0 0 0 0 0 0
0 0 0 0 0 0 0 0 0 0 0
0 0 0 0 0 0 0 0 0 0 0
0 0 0 0 0 0 0 0 0 0 0
0 0 0 0 0 0 0 0 0 0 0
0 0 0 0 0 0 0 0 0 0 0
0 0 0 0 0 0 0 0 0 0 0
0 0 0 0 0 0 0 0 0 0 0
0 0 0 0 0 0 0 0 0 0 0
0 0 0 0 0 0 0 0 0 0 0
0 0 0 0 0 0 0 0 0 0 0
0 0 0 0 0 0 0 0 0 0 0
0 0 0 0 0 0 0 0 0 0 0
0 0 0 0 0 0 0 0 0 0 0
0 0 0 0 0 0 0 0 0 0 0
0 0 0 0 0 0 0 0 0 0 0